<?xml version="1.0" encoding="utf-8"?>
<!-- Generator: Adobe Illustrator 22.0.0, SVG Export Plug-In . SVG Version: 6.00 Build 0)  -->
<svg version="1.1" id="Layer_1" xmlns="http://www.w3.org/2000/svg" xmlns:xlink="http://www.w3.org/1999/xlink" x="0px" y="0px"
	 viewBox="0 0 812.1 691.6" style="enable-background:new 0 0 812.1 691.6;" xml:space="preserve">
<style type="text/css">
	.st0{opacity:5.000000e-02;fill:url(#SVGID_1_);}
	.st1{opacity:0.1;fill:url(#SVGID_2_);}
</style>
<linearGradient id="SVGID_1_" gradientUnits="userSpaceOnUse" x1="-6465.8262" y1="-1899.8317" x2="-5948.5215" y2="-1899.8317" gradientTransform="matrix(0.376 0.9266 -0.9266 0.376 1025.9563 6722.3047)">
	<stop  offset="6.710321e-02" style="stop-color:#00E0CA"/>
	<stop  offset="0.3738" style="stop-color:#1C82BD"/>
	<stop  offset="0.6533" style="stop-color:#FF00FF"/>
	<stop  offset="0.7581" style="stop-color:#C61DBE"/>
	<stop  offset="0.8916" style="stop-color:#323B71"/>
</linearGradient>
<polygon class="st0" points="605.5,194.2 812.1,389.5 539.7,470.8 267.2,552.1 333,275.5 398.9,-1.1 "/>
<linearGradient id="SVGID_2_" gradientUnits="userSpaceOnUse" x1="-54.4811" y1="-157.1299" x2="212.8329" y2="-157.1299" gradientTransform="matrix(0.9843 0.1768 -0.1768 0.9843 20.8427 671.9994)">
	<stop  offset="1.977164e-02" style="stop-color:#FFFFFF"/>
	<stop  offset="0.1949" style="stop-color:#8EDADB"/>
	<stop  offset="0.3525" style="stop-color:#00E0CA"/>
	<stop  offset="0.657" style="stop-color:#1C82BD"/>
	<stop  offset="0.8916" style="stop-color:#323B71"/>
</linearGradient>
<polygon class="st1" points="141.6,447.4 283.9,411 244.3,552.5 204.7,694 102,588.9 -0.7,483.8 "/>
</svg>
